^C:\USERS\MITCHELL MA\PROGRAMMING\LOST\LOST\CELL.CPP
/c /I"C:\USERS\MITCHELL MA\PROGRAMMING\LOST\\INCLUDE" /ZI /nologo /W3 /WX- /diagnostics:classic /sdl /Od /Oy- /D _MBCS /Gm- /EHsc /RTC1 /MDd /GS /fp:precise /permissive- /Zc:wchar_t /Zc:forScope /Zc:inline /Fo"DEBUG\\" /Fd"DEBUG\VC141.PDB" /Gd /TP /analyze- /FC C:\USERS\MITCHELL MA\PROGRAMMING\LOST\LOST\CELL.CPP
^C:\USERS\MITCHELL MA\PROGRAMMING\LOST\LOST\JPSBP.CPP
/c /I"C:\USERS\MITCHELL MA\PROGRAMMING\LOST\\INCLUDE" /ZI /nologo /W3 /WX- /diagnostics:classic /sdl /Od /Oy- /D _MBCS /Gm- /EHsc /RTC1 /MDd /GS /fp:precise /permissive- /Zc:wchar_t /Zc:forScope /Zc:inline /Fo"DEBUG\\" /Fd"DEBUG\VC141.PDB" /Gd /TP /analyze- /FC C:\USERS\MITCHELL MA\PROGRAMMING\LOST\LOST\JPSBP.CPP
^C:\USERS\MITCHELL MA\PROGRAMMING\LOST\LOST\DISTANCE.CPP
/c /I"C:\USERS\MITCHELL MA\PROGRAMMING\LOST\\INCLUDE" /ZI /nologo /W3 /WX- /diagnostics:classic /sdl /Od /Oy- /D _MBCS /Gm- /EHsc /RTC1 /MDd /GS /fp:precise /permissive- /Zc:wchar_t /Zc:forScope /Zc:inline /Fo"DEBUG\\" /Fd"DEBUG\VC141.PDB" /Gd /TP /analyze- /FC C:\USERS\MITCHELL MA\PROGRAMMING\LOST\LOST\DISTANCE.CPP
^C:\USERS\MITCHELL MA\PROGRAMMING\LOST\LOST\GRID.CPP
/c /I"C:\USERS\MITCHELL MA\PROGRAMMING\LOST\\INCLUDE" /ZI /nologo /W3 /WX- /diagnostics:classic /sdl /Od /Oy- /D _MBCS /Gm- /EHsc /RTC1 /MDd /GS /fp:precise /permissive- /Zc:wchar_t /Zc:forScope /Zc:inline /Fo"DEBUG\\" /Fd"DEBUG\VC141.PDB" /Gd /TP /analyze- /FC C:\USERS\MITCHELL MA\PROGRAMMING\LOST\LOST\GRID.CPP
^C:\USERS\MITCHELL MA\PROGRAMMING\LOST\LOST\ASTAR.CPP
/c /I"C:\USERS\MITCHELL MA\PROGRAMMING\LOST\\INCLUDE" /ZI /nologo /W3 /WX- /diagnostics:classic /sdl /Od /Oy- /D _MBCS /Gm- /EHsc /RTC1 /MDd /GS /fp:precise /permissive- /Zc:wchar_t /Zc:forScope /Zc:inline /Fo"DEBUG\\" /Fd"DEBUG\VC141.PDB" /Gd /TP /analyze- /FC C:\USERS\MITCHELL MA\PROGRAMMING\LOST\LOST\ASTAR.CPP
^C:\USERS\MITCHELL MA\PROGRAMMING\LOST\LOST\JPS.CPP
/c /I"C:\USERS\MITCHELL MA\PROGRAMMING\LOST\\INCLUDE" /ZI /nologo /W3 /WX- /diagnostics:classic /sdl /Od /Oy- /D _MBCS /Gm- /EHsc /RTC1 /MDd /GS /fp:precise /permissive- /Zc:wchar_t /Zc:forScope /Zc:inline /Fo"DEBUG\\" /Fd"DEBUG\VC141.PDB" /Gd /TP /analyze- /FC C:\USERS\MITCHELL MA\PROGRAMMING\LOST\LOST\JPS.CPP
^C:\USERS\MITCHELL MA\PROGRAMMING\LOST\LOST\SRC\JPSBP.CPP
/c /I"C:\USERS\MITCHELL MA\PROGRAMMING\LOST\\INCLUDE" /ZI /nologo /W3 /WX- /diagnostics:classic /sdl /Od /Oy- /D _MBCS /Gm- /EHsc /RTC1 /MDd /GS /fp:precise /permissive- /Zc:wchar_t /Zc:forScope /Zc:inline /Fo"DEBUG\\" /Fd"DEBUG\VC141.PDB" /Gd /TP /analyze- /FC C:\USERS\MITCHELL MA\PROGRAMMING\LOST\LOST\SRC\JPSBP.CPP
^C:\USERS\MITCHELL MA\PROGRAMMING\LOST\LOST\SRC\ASTAR.CPP
/c /I"C:\USERS\MITCHELL MA\PROGRAMMING\LOST\\INCLUDE" /ZI /nologo /W3 /WX- /diagnostics:classic /sdl /Od /Oy- /D _MBCS /Gm- /EHsc /RTC1 /MDd /GS /fp:precise /permissive- /Zc:wchar_t /Zc:forScope /Zc:inline /Fo"DEBUG\\" /Fd"DEBUG\VC141.PDB" /Gd /TP /analyze- /FC C:\USERS\MITCHELL MA\PROGRAMMING\LOST\LOST\SRC\ASTAR.CPP
^C:\USERS\MITCHELL MA\PROGRAMMING\LOST\LOST\SRC\DISTANCE.CPP
/c /I"C:\USERS\MITCHELL MA\PROGRAMMING\LOST\\INCLUDE" /ZI /nologo /W3 /WX- /diagnostics:classic /sdl /Od /Oy- /D _MBCS /Gm- /EHsc /RTC1 /MDd /GS /fp:precise /permissive- /Zc:wchar_t /Zc:forScope /Zc:inline /Fo"DEBUG\\" /Fd"DEBUG\VC141.PDB" /Gd /TP /analyze- /FC C:\USERS\MITCHELL MA\PROGRAMMING\LOST\LOST\SRC\DISTANCE.CPP
^C:\USERS\MITCHELL MA\PROGRAMMING\LOST\LOST\SRC\JPS.CPP
/c /I"C:\USERS\MITCHELL MA\PROGRAMMING\LOST\\INCLUDE" /ZI /nologo /W3 /WX- /diagnostics:classic /sdl /Od /Oy- /D _MBCS /Gm- /EHsc /RTC1 /MDd /GS /fp:precise /permissive- /Zc:wchar_t /Zc:forScope /Zc:inline /Fo"DEBUG\\" /Fd"DEBUG\VC141.PDB" /Gd /TP /analyze- /FC C:\USERS\MITCHELL MA\PROGRAMMING\LOST\LOST\SRC\JPS.CPP
^C:\USERS\MITCHELL MA\PROGRAMMING\LOST\LOST\MAIN.CPP
/c /I"C:\USERS\MITCHELL MA\PROGRAMMING\LOST\\INCLUDE" /ZI /nologo /W3 /WX- /diagnostics:classic /sdl /Od /Oy- /D _MBCS /Gm- /EHsc /RTC1 /MDd /GS /fp:precise /permissive- /Zc:wchar_t /Zc:forScope /Zc:inline /Fo"DEBUG\\" /Fd"DEBUG\VC141.PDB" /Gd /TP /analyze- /FC C:\USERS\MITCHELL MA\PROGRAMMING\LOST\LOST\MAIN.CPP
^C:\USERS\MITCHELL MA\PROGRAMMING\LOST\LOST\SRC\GRID.CPP
/c /I"C:\USERS\MITCHELL MA\PROGRAMMING\LOST\\INCLUDE" /ZI /nologo /W3 /WX- /diagnostics:classic /sdl /Od /Oy- /D _MBCS /Gm- /EHsc /RTC1 /MDd /GS /fp:precise /permissive- /Zc:wchar_t /Zc:forScope /Zc:inline /Fo"DEBUG\\" /Fd"DEBUG\VC141.PDB" /Gd /TP /analyze- /FC C:\USERS\MITCHELL MA\PROGRAMMING\LOST\LOST\SRC\GRID.CPP
