^C:\USERS\MITCHELL MA\PROGRAMMING\LOST\LOST\ASTAR.CPP|C:\USERS\MITCHELL MA\PROGRAMMING\LOST\LOST\CELL.CPP|C:\USERS\MITCHELL MA\PROGRAMMING\LOST\LOST\GRID.CPP|C:\USERS\MITCHELL MA\PROGRAMMING\LOST\LOST\JPS.CPP|C:\USERS\MITCHELL MA\PROGRAMMING\LOST\LOST\JPSBP.CPP|C:\USERS\MITCHELL MA\PROGRAMMING\LOST\LOST\MAIN.CPP
C:\USERS\MITCHELL MA\PROGRAMMING\LOST\LOST\RELEASE\VC141.PDB
C:\USERS\MITCHELL MA\PROGRAMMING\LOST\LOST\RELEASE\GRID.OBJ
C:\USERS\MITCHELL MA\PROGRAMMING\LOST\LOST\RELEASE\MAIN.OBJ
C:\USERS\MITCHELL MA\PROGRAMMING\LOST\LOST\RELEASE\JPS.OBJ
C:\USERS\MITCHELL MA\PROGRAMMING\LOST\LOST\RELEASE\JPSBP.OBJ
C:\USERS\MITCHELL MA\PROGRAMMING\LOST\LOST\RELEASE\CELL.OBJ
C:\USERS\MITCHELL MA\PROGRAMMING\LOST\LOST\RELEASE\ASTAR.OBJ
^C:\USERS\MITCHELL MA\PROGRAMMING\LOST\LOST\ASTAR.CPP|C:\USERS\MITCHELL MA\PROGRAMMING\LOST\LOST\GRID.CPP|C:\USERS\MITCHELL MA\PROGRAMMING\LOST\LOST\JPS.CPP|C:\USERS\MITCHELL MA\PROGRAMMING\LOST\LOST\MAIN.CPP
C:\USERS\MITCHELL MA\PROGRAMMING\LOST\LOST\RELEASE\VC141.PDB
C:\USERS\MITCHELL MA\PROGRAMMING\LOST\LOST\RELEASE\MAIN.OBJ
C:\USERS\MITCHELL MA\PROGRAMMING\LOST\LOST\RELEASE\JPS.OBJ
C:\USERS\MITCHELL MA\PROGRAMMING\LOST\LOST\RELEASE\GRID.OBJ
C:\USERS\MITCHELL MA\PROGRAMMING\LOST\LOST\RELEASE\ASTAR.OBJ
^C:\USERS\MITCHELL MA\PROGRAMMING\LOST\LOST\MAIN.CPP|C:\USERS\MITCHELL MA\PROGRAMMING\LOST\LOST\SRC\ASTAR.CPP|C:\USERS\MITCHELL MA\PROGRAMMING\LOST\LOST\SRC\DISTANCE.CPP|C:\USERS\MITCHELL MA\PROGRAMMING\LOST\LOST\SRC\GRID.CPP|C:\USERS\MITCHELL MA\PROGRAMMING\LOST\LOST\SRC\JPS.CPP|C:\USERS\MITCHELL MA\PROGRAMMING\LOST\LOST\SRC\JPSBP.CPP
C:\USERS\MITCHELL MA\PROGRAMMING\LOST\LOST\RELEASE\VC141.PDB
C:\USERS\MITCHELL MA\PROGRAMMING\LOST\LOST\RELEASE\JPSBP.OBJ
C:\USERS\MITCHELL MA\PROGRAMMING\LOST\LOST\RELEASE\MAIN.OBJ
^C:\USERS\MITCHELL MA\PROGRAMMING\LOST\LOST\SRC\ASTAR.CPP|C:\USERS\MITCHELL MA\PROGRAMMING\LOST\LOST\SRC\DISTANCE.CPP|C:\USERS\MITCHELL MA\PROGRAMMING\LOST\LOST\SRC\GRID.CPP|C:\USERS\MITCHELL MA\PROGRAMMING\LOST\LOST\SRC\JPS.CPP
C:\USERS\MITCHELL MA\PROGRAMMING\LOST\LOST\RELEASE\VC141.PDB
C:\USERS\MITCHELL MA\PROGRAMMING\LOST\LOST\RELEASE\GRID.OBJ
C:\USERS\MITCHELL MA\PROGRAMMING\LOST\LOST\RELEASE\DISTANCE.OBJ
^C:\USERS\MITCHELL MA\PROGRAMMING\LOST\LOST\SRC\ASTAR.CPP|C:\USERS\MITCHELL MA\PROGRAMMING\LOST\LOST\SRC\DISTANCE.CPP|C:\USERS\MITCHELL MA\PROGRAMMING\LOST\LOST\SRC\JPS.CPP
C:\USERS\MITCHELL MA\PROGRAMMING\LOST\LOST\RELEASE\VC141.PDB
C:\USERS\MITCHELL MA\PROGRAMMING\LOST\LOST\RELEASE\JPS.OBJ
C:\USERS\MITCHELL MA\PROGRAMMING\LOST\LOST\RELEASE\DISTANCE.OBJ
C:\USERS\MITCHELL MA\PROGRAMMING\LOST\LOST\RELEASE\ASTAR.OBJ
^C:\USERS\MITCHELL MA\PROGRAMMING\LOST\LOST\SRC\ASTAR.CPP
C:\USERS\MITCHELL MA\PROGRAMMING\LOST\LOST\RELEASE\VC141.PDB
^C:\USERS\MITCHELL MA\PROGRAMMING\LOST\LOST\SRC\DISTANCE.CPP
C:\USERS\MITCHELL MA\PROGRAMMING\LOST\LOST\RELEASE\VC141.PDB
^C:\USERS\MITCHELL MA\PROGRAMMING\LOST\LOST\SRC\JPS.CPP
C:\USERS\MITCHELL MA\PROGRAMMING\LOST\LOST\RELEASE\VC141.PDB
^C:\USERS\MITCHELL MA\PROGRAMMING\LOST\LOST\SRC\GRID.CPP
C:\USERS\MITCHELL MA\PROGRAMMING\LOST\LOST\RELEASE\VC141.PDB
C:\USERS\MITCHELL MA\PROGRAMMING\LOST\LOST\RELEASE\GRID.OBJ
^C:\USERS\MITCHELL MA\PROGRAMMING\LOST\LOST\MAIN.CPP
C:\USERS\MITCHELL MA\PROGRAMMING\LOST\LOST\RELEASE\VC141.PDB
C:\USERS\MITCHELL MA\PROGRAMMING\LOST\LOST\RELEASE\MAIN.OBJ
