^C:\USERS\MITCHELL MA\PROGRAMMING\LOST\LOST\RELEASE\ASTAR.OBJ|C:\USERS\MITCHELL MA\PROGRAMMING\LOST\LOST\RELEASE\DISTANCE.OBJ|C:\USERS\MITCHELL MA\PROGRAMMING\LOST\LOST\RELEASE\GRID.OBJ|C:\USERS\MITCHELL MA\PROGRAMMING\LOST\LOST\RELEASE\JPS.OBJ|C:\USERS\MITCHELL MA\PROGRAMMING\LOST\LOST\RELEASE\MAIN.OBJ
C:\USERS\MITCHELL MA\PROGRAMMING\LOST\RELEASE\LOST.EXE
C:\USERS\MITCHELL MA\PROGRAMMING\LOST\RELEASE\LOST.PDB
